{
    "case1": [
        [
            "W",
            "W",
            "W",
            "W",
            "W",
            "W",
            "M",
            "M",
            "W",
            "W",
            "W",
            "W",
            "W",
            "W"
        ],
        [
            "W",
            "F",
            "F",
            "F",
            "F",
            "F",
            "F",
            "F",
            "F",
            "F",
            "F",
            "F",
            "F",
            "W"
        ],
        [
            "W",
            "F",
            "F",
            "F",
            "F",
            "F",
            "F",
            "F",
            "F",
            "F",
            "F",
            "F",
            "F",
            "W"
        ],
        [
            "W",
            "F",
            "F",
            "F",
            "F",
            "F",
            "F",
            "F",
            "F",
            "F",
            "F",
            "F",
            "F",
            "W"
        ],
        [
            "W",
            "F",
            "F",
            "F",
            "F",
            "F",
            "F",
            "F",
            "F",
            "F",
            "F",
            "F",
            "F",
            "W"
        ],
        [
            "W",
            "F",
            "F",
            "F",
            "F",
            "F",
            "F",
            "F",
            "F",
            "F",
            "F",
            "F",
            "F",
            "W"
        ],
        [
            "W",
            "F",
            "F",
            "F",
            "F",
            "F",
            "F",
            "F",
            "F",
            "F",
            "F",
            "F",
            "F",
            "M"
        ],
        [
            "W",
            "F",
            "F",
            "F",
            "F",
            "F",
            "F",
            "F",
            "F",
            "F",
            "F",
            "F",
            "F",
            "M"
        ],
        [
            "W",
            "F",
            "F",
            "F",
            "F",
            "F",
            "F",
            "F",
            "F",
            "F",
            "F",
            "F",
            "F",
            "W"
        ],
        [
            "W",
            "F",
            "F",
            "F",
            "F",
            "F",
            "F",
            "F",
            "F",
            "F",
            "F",
            "F",
            "F",
            "W"
        ],
        [
            "W",
            "F",
            "F",
            "F",
            "F",
            "F",
            "F",
            "F",
            "F",
            "F",
            "F",
            "F",
            "F",
            "W"
        ],
        [
            "W",
            "F",
            "F",
            "F",
            "F",
            "F",
            "F",
            "F",
            "F",
            "F",
            "F",
            "F",
            "F",
            "W"
        ],
        [
            "W",
            "F",
            "F",
            "F",
            "F",
            "F",
            "F",
            "F",
            "F",
            "F",
            "F",
            "F",
            "F",
            "W"
        ],
        [
            "W",
            "W",
            "W",
            "W",
            "W",
            "W",
            "P",
            "P",
            "W",
            "W",
            "W",
            "W",
            "W",
            "W"
        ]
    ],
    "case2": [
        [
            "W",
            "W",
            "W",
            "W",
            "W",
            "W",
            "M",
            "M",
            "W",
            "W",
            "W",
            "W",
            "W",
            "W"
        ],
        [
            "W",
            "F",
            "F",
            "F",
            "F",
            "F",
            "F",
            "F",
            "F",
            "F",
            "F",
            "F",
            "F",
            "W"
        ],
        [
            "W",
            "F",
            "F",
            "F",
            "F",
            "F",
            "F",
            "F",
            "F",
            "F",
            "F",
            "F",
            "F",
            "W"
        ],
        [
            "W",
            "F",
            "F",
            "F",
            "F",
            "F",
            "F",
            "F",
            "F",
            "F",
            "F",
            "F",
            "F",
            "W"
        ],
        [
            "W",
            "F",
            "F",
            "F",
            "F",
            "F",
            "F",
            "F",
            "F",
            "F",
            "F",
            "F",
            "F",
            "W"
        ],
        [
            "W",
            "F",
            "F",
            "F",
            "F",
            "F",
            "F",
            "F",
            "F",
            "F",
            "F",
            "F",
            "F",
            "W"
        ],
        [
            "P",
            "F",
            "F",
            "F",
            "F",
            "F",
            "F",
            "F",
            "F",
            "F",
            "F",
            "F",
            "F",
            "M"
        ],
        [
            "P",
            "F",
            "F",
            "F",
            "F",
            "F",
            "F",
            "F",
            "F",
            "F",
            "F",
            "F",
            "F",
            "M"
        ],
        [
            "W",
            "F",
            "F",
            "F",
            "F",
            "F",
            "F",
            "F",
            "F",
            "F",
            "F",
            "F",
            "F",
            "W"
        ],
        [
            "W",
            "F",
            "F",
            "F",
            "F",
            "F",
            "F",
            "F",
            "F",
            "F",
            "F",
            "F",
            "F",
            "W"
        ],
        [
            "W",
            "F",
            "F",
            "F",
            "F",
            "F",
            "F",
            "F",
            "F",
            "F",
            "F",
            "F",
            "F",
            "W"
        ],
        [
            "W",
            "F",
            "F",
            "F",
            "F",
            "F",
            "F",
            "F",
            "F",
            "F",
            "F",
            "F",
            "F",
            "W"
        ],
        [
            "W",
            "F",
            "F",
            "F",
            "F",
            "F",
            "F",
            "F",
            "F",
            "F",
            "F",
            "F",
            "F",
            "W"
        ],
        [
            "W",
            "W",
            "W",
            "W",
            "W",
            "W",
            "W",
            "W",
            "W",
            "W",
            "W",
            "W",
            "W",
            "W"
        ]
    ],
    "case3": [
        [
            "W",
            "W",
            "W",
            "W",
            "W",
            "W",
            "M",
            "M",
            "W",
            "W",
            "W",
            "W",
            "W",
            "W"
        ],
        [
            "W",
            "F",
            "F",
            "F",
            "F",
            "F",
            "F",
            "F",
            "F",
            "F",
            "F",
            "F",
            "F",
            "W"
        ],
        [
            "W",
            "F",
            "F",
            "F",
            "F",
            "F",
            "F",
            "F",
            "F",
            "F",
            "F",
            "F",
            "F",
            "W"
        ],
        [
            "W",
            "F",
            "F",
            "F",
            "F",
            "F",
            "F",
            "F",
            "F",
            "F",
            "F",
            "F",
            "F",
            "W"
        ],
        [
            "W",
            "F",
            "F",
            "F",
            "F",
            "F",
            "F",
            "F",
            "F",
            "F",
            "F",
            "F",
            "F",
            "W"
        ],
        [
            "W",
            "F",
            "F",
            "F",
            "F",
            "F",
            "F",
            "F",
            "F",
            "F",
            "F",
            "F",
            "F",
            "W"
        ],
        [
            "W",
            "F",
            "F",
            "F",
            "F",
            "F",
            "F",
            "F",
            "F",
            "F",
            "F",
            "F",
            "F",
            "P"
        ],
        [
            "W",
            "F",
            "F",
            "F",
            "F",
            "F",
            "F",
            "F",
            "F",
            "F",
            "F",
            "F",
            "F",
            "P"
        ],
        [
            "W",
            "F",
            "F",
            "F",
            "F",
            "F",
            "F",
            "F",
            "F",
            "F",
            "F",
            "F",
            "F",
            "W"
        ],
        [
            "W",
            "F",
            "F",
            "F",
            "F",
            "F",
            "F",
            "F",
            "F",
            "F",
            "F",
            "F",
            "F",
            "W"
        ],
        [
            "W",
            "F",
            "F",
            "F",
            "F",
            "F",
            "F",
            "F",
            "F",
            "F",
            "F",
            "F",
            "F",
            "W"
        ],
        [
            "W",
            "F",
            "F",
            "F",
            "F",
            "F",
            "F",
            "F",
            "F",
            "F",
            "F",
            "F",
            "F",
            "W"
        ],
        [
            "W",
            "F",
            "F",
            "F",
            "F",
            "F",
            "F",
            "F",
            "F",
            "F",
            "F",
            "F",
            "F",
            "W"
        ],
        [
            "W",
            "W",
            "W",
            "W",
            "W",
            "M",
            "M",
            "W",
            "W",
            "W",
            "W",
            "W",
            "W",
            "W"
        ]
    ],
    "case4": [
        [
            "W",
            "W",
            "W",
            "W",
            "W",
            "W",
            "M",
            "M",
            "W",
            "W",
            "W",
            "W",
            "W",
            "W"
        ],
        [
            "W",
            "F",
            "F",
            "F",
            "F",
            "F",
            "F",
            "F",
            "F",
            "F",
            "F",
            "F",
            "F",
            "W"
        ],
        [
            "W",
            "F",
            "F",
            "F",
            "F",
            "F",
            "F",
            "F",
            "F",
            "F",
            "F",
            "F",
            "F",
            "W"
        ],
        [
            "W",
            "F",
            "F",
            "F",
            "F",
            "F",
            "F",
            "F",
            "F",
            "F",
            "F",
            "F",
            "F",
            "W"
        ],
        [
            "W",
            "F",
            "F",
            "F",
            "F",
            "F",
            "F",
            "F",
            "F",
            "F",
            "F",
            "F",
            "F",
            "W"
        ],
        [
            "W",
            "F",
            "F",
            "F",
            "F",
            "F",
            "F",
            "F",
            "F",
            "F",
            "F",
            "F",
            "F",
            "W"
        ],
        [
            "P",
            "F",
            "F",
            "F",
            "F",
            "F",
            "F",
            "F",
            "F",
            "F",
            "F",
            "F",
            "F",
            "W"
        ],
        [
            "P",
            "F",
            "F",
            "F",
            "F",
            "F",
            "F",
            "F",
            "F",
            "F",
            "F",
            "F",
            "F",
            "W"
        ],
        [
            "W",
            "F",
            "F",
            "F",
            "F",
            "F",
            "F",
            "F",
            "F",
            "F",
            "F",
            "F",
            "F",
            "W"
        ],
        [
            "W",
            "F",
            "F",
            "F",
            "F",
            "F",
            "F",
            "F",
            "F",
            "F",
            "F",
            "F",
            "F",
            "W"
        ],
        [
            "W",
            "F",
            "F",
            "F",
            "F",
            "F",
            "F",
            "F",
            "F",
            "F",
            "F",
            "F",
            "F",
            "W"
        ],
        [
            "W",
            "F",
            "F",
            "F",
            "F",
            "F",
            "F",
            "F",
            "F",
            "F",
            "F",
            "F",
            "F",
            "W"
        ],
        [
            "W",
            "F",
            "F",
            "F",
            "F",
            "F",
            "F",
            "F",
            "F",
            "F",
            "F",
            "F",
            "F",
            "W"
        ],
        [
            "W",
            "W",
            "W",
            "W",
            "W",
            "W",
            "M",
            "M",
            "W",
            "W",
            "W",
            "W",
            "W",
            "W"
        ]
    ],
    "case5": [
        [
            "W",
            "W",
            "W",
            "W",
            "W",
            "W",
            "M",
            "M",
            "W",
            "W",
            "W",
            "W",
            "W",
            "W"
        ],
        [
            "W",
            "F",
            "F",
            "F",
            "F",
            "F",
            "F",
            "F",
            "F",
            "F",
            "F",
            "F",
            "F",
            "W"
        ],
        [
            "W",
            "F",
            "F",
            "F",
            "F",
            "F",
            "F",
            "F",
            "F",
            "F",
            "F",
            "F",
            "F",
            "W"
        ],
        [
            "W",
            "F",
            "F",
            "F",
            "F",
            "F",
            "F",
            "F",
            "F",
            "F",
            "F",
            "F",
            "F",
            "W"
        ],
        [
            "W",
            "F",
            "F",
            "F",
            "F",
            "F",
            "F",
            "F",
            "F",
            "F",
            "F",
            "F",
            "F",
            "W"
        ],
        [
            "W",
            "F",
            "F",
            "F",
            "F",
            "F",
            "F",
            "F",
            "F",
            "F",
            "F",
            "F",
            "F",
            "W"
        ],
        [
            "M",
            "F",
            "F",
            "F",
            "F",
            "F",
            "F",
            "F",
            "F",
            "F",
            "F",
            "F",
            "F",
            "P"
        ],
        [
            "M",
            "F",
            "F",
            "F",
            "F",
            "F",
            "F",
            "F",
            "F",
            "F",
            "F",
            "F",
            "F",
            "P"
        ],
        [
            "W",
            "F",
            "F",
            "F",
            "F",
            "F",
            "F",
            "F",
            "F",
            "F",
            "F",
            "F",
            "F",
            "W"
        ],
        [
            "W",
            "F",
            "F",
            "F",
            "F",
            "F",
            "F",
            "F",
            "F",
            "F",
            "F",
            "F",
            "F",
            "W"
        ],
        [
            "W",
            "F",
            "F",
            "F",
            "F",
            "F",
            "F",
            "F",
            "F",
            "F",
            "F",
            "F",
            "F",
            "W"
        ],
        [
            "W",
            "F",
            "F",
            "F",
            "F",
            "F",
            "F",
            "F",
            "F",
            "F",
            "F",
            "F",
            "F",
            "W"
        ],
        [
            "W",
            "F",
            "F",
            "F",
            "F",
            "F",
            "F",
            "F",
            "F",
            "F",
            "F",
            "F",
            "F",
            "W"
        ],
        [
            "W",
            "W",
            "W",
            "W",
            "W",
            "W",
            "W",
            "W",
            "W",
            "W",
            "W",
            "W",
            "W",
            "W"
        ]
    ],
    "case6": [
        [
            "W",
            "W",
            "W",
            "W",
            "W",
            "W",
            "M",
            "M",
            "W",
            "W",
            "W",
            "W",
            "W",
            "W"
        ],
        [
            "W",
            "F",
            "F",
            "F",
            "F",
            "F",
            "F",
            "F",
            "F",
            "F",
            "F",
            "F",
            "F",
            "W"
        ],
        [
            "W",
            "F",
            "F",
            "F",
            "F",
            "F",
            "F",
            "F",
            "F",
            "F",
            "F",
            "F",
            "F",
            "W"
        ],
        [
            "W",
            "F",
            "F",
            "F",
            "F",
            "F",
            "F",
            "F",
            "F",
            "F",
            "F",
            "F",
            "F",
            "W"
        ],
        [
            "W",
            "F",
            "F",
            "F",
            "F",
            "F",
            "F",
            "F",
            "F",
            "F",
            "F",
            "F",
            "F",
            "W"
        ],
        [
            "W",
            "F",
            "F",
            "F",
            "F",
            "F",
            "F",
            "F",
            "F",
            "F",
            "F",
            "F",
            "F",
            "W"
        ],
        [
            "M",
            "F",
            "F",
            "F",
            "F",
            "F",
            "F",
            "F",
            "F",
            "F",
            "F",
            "F",
            "F",
            "W"
        ],
        [
            "M",
            "F",
            "F",
            "F",
            "F",
            "F",
            "F",
            "F",
            "F",
            "F",
            "F",
            "F",
            "F",
            "W"
        ],
        [
            "W",
            "F",
            "F",
            "F",
            "F",
            "F",
            "F",
            "F",
            "F",
            "F",
            "F",
            "F",
            "F",
            "W"
        ],
        [
            "W",
            "F",
            "F",
            "F",
            "F",
            "F",
            "F",
            "F",
            "F",
            "F",
            "F",
            "F",
            "F",
            "W"
        ],
        [
            "W",
            "F",
            "F",
            "F",
            "F",
            "F",
            "F",
            "F",
            "F",
            "F",
            "F",
            "F",
            "F",
            "W"
        ],
        [
            "W",
            "F",
            "F",
            "F",
            "F",
            "F",
            "F",
            "F",
            "F",
            "F",
            "F",
            "F",
            "F",
            "W"
        ],
        [
            "W",
            "F",
            "F",
            "F",
            "F",
            "F",
            "F",
            "F",
            "F",
            "F",
            "F",
            "F",
            "F",
            "W"
        ],
        [
            "W",
            "W",
            "W",
            "W",
            "W",
            "W",
            "P",
            "P",
            "W",
            "W",
            "W",
            "W",
            "W",
            "W"
        ]
    ],
    "case7": [
        [
            "W",
            "W",
            "W",
            "W",
            "W",
            "W",
            "W",
            "W",
            "W",
            "W",
            "W",
            "W",
            "W",
            "W"
        ],
        [
            "W",
            "F",
            "F",
            "F",
            "F",
            "F",
            "F",
            "F",
            "F",
            "F",
            "F",
            "F",
            "F",
            "W"
        ],
        [
            "W",
            "F",
            "F",
            "F",
            "F",
            "F",
            "F",
            "F",
            "F",
            "F",
            "F",
            "F",
            "F",
            "W"
        ],
        [
            "W",
            "F",
            "F",
            "F",
            "F",
            "F",
            "F",
            "F",
            "F",
            "F",
            "F",
            "F",
            "F",
            "W"
        ],
        [
            "W",
            "F",
            "F",
            "F",
            "F",
            "F",
            "F",
            "F",
            "F",
            "F",
            "F",
            "F",
            "F",
            "W"
        ],
        [
            "W",
            "F",
            "F",
            "F",
            "F",
            "F",
            "F",
            "F",
            "F",
            "F",
            "F",
            "F",
            "F",
            "W"
        ],
        [
            "P",
            "F",
            "F",
            "F",
            "F",
            "F",
            "F",
            "F",
            "F",
            "F",
            "F",
            "F",
            "F",
            "M"
        ],
        [
            "P",
            "F",
            "F",
            "F",
            "F",
            "F",
            "F",
            "F",
            "F",
            "F",
            "F",
            "F",
            "F",
            "M"
        ],
        [
            "W",
            "F",
            "F",
            "F",
            "F",
            "F",
            "F",
            "F",
            "F",
            "F",
            "F",
            "F",
            "F",
            "W"
        ],
        [
            "W",
            "F",
            "F",
            "F",
            "F",
            "F",
            "F",
            "F",
            "F",
            "F",
            "F",
            "F",
            "F",
            "W"
        ],
        [
            "W",
            "F",
            "F",
            "F",
            "F",
            "F",
            "F",
            "F",
            "F",
            "F",
            "F",
            "F",
            "F",
            "W"
        ],
        [
            "W",
            "F",
            "F",
            "F",
            "F",
            "F",
            "F",
            "F",
            "F",
            "F",
            "F",
            "F",
            "F",
            "W"
        ],
        [
            "W",
            "F",
            "F",
            "F",
            "F",
            "F",
            "F",
            "F",
            "F",
            "F",
            "F",
            "F",
            "F",
            "W"
        ],
        [
            "W",
            "W",
            "W",
            "W",
            "W",
            "W",
            "M",
            "M",
            "W",
            "W",
            "W",
            "W",
            "W",
            "W"
        ]
    ],
    "case8": [
        [
            "W",
            "W",
            "W",
            "W",
            "W",
            "W",
            "P",
            "P",
            "W",
            "W",
            "W",
            "W",
            "W",
            "W"
        ],
        [
            "W",
            "F",
            "F",
            "F",
            "F",
            "F",
            "F",
            "F",
            "F",
            "F",
            "F",
            "F",
            "F",
            "W"
        ],
        [
            "W",
            "F",
            "F",
            "F",
            "F",
            "F",
            "F",
            "F",
            "F",
            "F",
            "F",
            "F",
            "F",
            "W"
        ],
        [
            "W",
            "F",
            "F",
            "F",
            "F",
            "F",
            "F",
            "F",
            "F",
            "F",
            "F",
            "F",
            "F",
            "W"
        ],
        [
            "W",
            "F",
            "F",
            "F",
            "F",
            "F",
            "F",
            "F",
            "F",
            "F",
            "F",
            "F",
            "F",
            "W"
        ],
        [
            "W",
            "F",
            "F",
            "F",
            "F",
            "F",
            "F",
            "F",
            "F",
            "F",
            "F",
            "F",
            "F",
            "W"
        ],
        [
            "W",
            "F",
            "F",
            "F",
            "F",
            "F",
            "F",
            "F",
            "F",
            "F",
            "F",
            "F",
            "F",
            "M"
        ],
        [
            "W",
            "F",
            "F",
            "F",
            "F",
            "F",
            "F",
            "F",
            "F",
            "F",
            "F",
            "F",
            "F",
            "M"
        ],
        [
            "W",
            "F",
            "F",
            "F",
            "F",
            "F",
            "F",
            "F",
            "F",
            "F",
            "F",
            "F",
            "F",
            "W"
        ],
        [
            "W",
            "F",
            "F",
            "F",
            "F",
            "F",
            "F",
            "F",
            "F",
            "F",
            "F",
            "F",
            "F",
            "W"
        ],
        [
            "W",
            "F",
            "F",
            "F",
            "F",
            "F",
            "F",
            "F",
            "F",
            "F",
            "F",
            "F",
            "F",
            "W"
        ],
        [
            "W",
            "F",
            "F",
            "F",
            "F",
            "F",
            "F",
            "F",
            "F",
            "F",
            "F",
            "F",
            "F",
            "W"
        ],
        [
            "W",
            "F",
            "F",
            "F",
            "F",
            "F",
            "F",
            "F",
            "F",
            "F",
            "F",
            "F",
            "F",
            "W"
        ],
        [
            "W",
            "W",
            "W",
            "W",
            "W",
            "W",
            "M",
            "M",
            "W",
            "W",
            "W",
            "W",
            "W",
            "W"
        ]
    ],
    "case9": [
        [
            "W",
            "W",
            "W",
            "W",
            "W",
            "W",
            "W",
            "W",
            "W",
            "W",
            "W",
            "W",
            "W",
            "W"
        ],
        [
            "W",
            "F",
            "F",
            "F",
            "F",
            "F",
            "F",
            "F",
            "F",
            "F",
            "F",
            "F",
            "F",
            "W"
        ],
        [
            "W",
            "F",
            "F",
            "F",
            "F",
            "F",
            "F",
            "F",
            "F",
            "F",
            "F",
            "F",
            "F",
            "W"
        ],
        [
            "W",
            "F",
            "F",
            "F",
            "F",
            "F",
            "F",
            "F",
            "F",
            "F",
            "F",
            "F",
            "F",
            "W"
        ],
        [
            "W",
            "F",
            "F",
            "F",
            "F",
            "F",
            "F",
            "F",
            "F",
            "F",
            "F",
            "F",
            "F",
            "W"
        ],
        [
            "W",
            "F",
            "F",
            "F",
            "F",
            "F",
            "F",
            "F",
            "F",
            "F",
            "F",
            "F",
            "F",
            "W"
        ],
        [
            "M",
            "F",
            "F",
            "F",
            "F",
            "F",
            "F",
            "F",
            "F",
            "F",
            "F",
            "F",
            "F",
            "M"
        ],
        [
            "M",
            "F",
            "F",
            "F",
            "F",
            "F",
            "F",
            "F",
            "F",
            "F",
            "F",
            "F",
            "F",
            "M"
        ],
        [
            "W",
            "F",
            "F",
            "F",
            "F",
            "F",
            "F",
            "F",
            "F",
            "F",
            "F",
            "F",
            "F",
            "W"
        ],
        [
            "W",
            "F",
            "F",
            "F",
            "F",
            "F",
            "F",
            "F",
            "F",
            "F",
            "F",
            "F",
            "F",
            "W"
        ],
        [
            "W",
            "F",
            "F",
            "F",
            "F",
            "F",
            "F",
            "F",
            "F",
            "F",
            "F",
            "F",
            "F",
            "W"
        ],
        [
            "W",
            "F",
            "F",
            "F",
            "F",
            "F",
            "F",
            "F",
            "F",
            "F",
            "F",
            "F",
            "F",
            "W"
        ],
        [
            "W",
            "F",
            "F",
            "F",
            "F",
            "F",
            "F",
            "F",
            "F",
            "F",
            "F",
            "F",
            "F",
            "W"
        ],
        [
            "W",
            "W",
            "W",
            "W",
            "W",
            "W",
            "P",
            "P",
            "W",
            "W",
            "W",
            "W",
            "W",
            "W"
        ]
    ],
    "case10": [
        [
            "W",
            "W",
            "W",
            "W",
            "W",
            "W",
            "P",
            "P",
            "W",
            "W",
            "W",
            "W",
            "W",
            "W"
        ],
        [
            "W",
            "F",
            "F",
            "F",
            "F",
            "F",
            "F",
            "F",
            "F",
            "F",
            "F",
            "F",
            "F",
            "W"
        ],
        [
            "W",
            "F",
            "F",
            "F",
            "F",
            "F",
            "F",
            "F",
            "F",
            "F",
            "F",
            "F",
            "F",
            "W"
        ],
        [
            "W",
            "F",
            "F",
            "F",
            "F",
            "F",
            "F",
            "F",
            "F",
            "F",
            "F",
            "F",
            "F",
            "W"
        ],
        [
            "W",
            "F",
            "F",
            "F",
            "F",
            "F",
            "F",
            "F",
            "F",
            "F",
            "F",
            "F",
            "F",
            "W"
        ],
        [
            "W",
            "F",
            "F",
            "F",
            "F",
            "F",
            "F",
            "F",
            "F",
            "F",
            "F",
            "F",
            "F",
            "W"
        ],
        [
            "M",
            "F",
            "F",
            "F",
            "F",
            "F",
            "F",
            "F",
            "F",
            "F",
            "F",
            "F",
            "F",
            "M"
        ],
        [
            "M",
            "F",
            "F",
            "F",
            "F",
            "F",
            "F",
            "F",
            "F",
            "F",
            "F",
            "F",
            "F",
            "M"
        ],
        [
            "W",
            "F",
            "F",
            "F",
            "F",
            "F",
            "F",
            "F",
            "F",
            "F",
            "F",
            "F",
            "F",
            "W"
        ],
        [
            "W",
            "F",
            "F",
            "F",
            "F",
            "F",
            "F",
            "F",
            "F",
            "F",
            "F",
            "F",
            "F",
            "W"
        ],
        [
            "W",
            "F",
            "F",
            "F",
            "F",
            "F",
            "F",
            "F",
            "F",
            "F",
            "F",
            "F",
            "F",
            "W"
        ],
        [
            "W",
            "F",
            "F",
            "F",
            "F",
            "F",
            "F",
            "F",
            "F",
            "F",
            "F",
            "F",
            "F",
            "W"
        ],
        [
            "W",
            "F",
            "F",
            "F",
            "F",
            "F",
            "F",
            "F",
            "F",
            "F",
            "F",
            "F",
            "F",
            "W"
        ],
        [
            "W",
            "W",
            "W",
            "W",
            "W",
            "W",
            "M",
            "M",
            "W",
            "W",
            "W",
            "W",
            "W",
            "W"
        ]
    ]
}